9 Introdução à Big Data – R intermediário e pesquisa reprodutível
…
Algo muito legal de perceber é como muitas funções do {dplyr} tem nomes muito parecidos com as funções e comandos do SQL. O autor do pacote dplyr, Hadley Wickham, já utilizava SQL antes de criar o pacote {dplyr}!

Para coletar os dados na memória, utilizamos a função collect(). Ao utilizar essa função, o dbplyr traduz o código em {dplyr} para uma consulta de banco de dados, que é executada, e então e os dados são coletados na memória.

df_voos_contagem_mes <- collect(query_voos_contagem_mes)

df_voos_contagem_mes

# # A tibble: 60 × 5
#    nr_ano_referencia nr_mes_referencia ds_servico_tipo_linha ds_natureza_etapa quantidade_de_voos
#                <dbl>             <dbl> <chr>                 <chr>                          <int>
#  1              2024                 1 CARGUEIRO             DOMÉSTICA                       1916
#  2              2024                 1 CARGUEIRO             INTERNACIONAL                    201
#  3              2024                 1 NÃO IDENTIFICADO      INTERNACIONAL                   9459
#  4              2024                 1 PASSAGEIRO            DOMÉSTICA                      66719
#  5              2024                 1 PASSAGEIRO            INTERNACIONAL                   3901
#  6              2024                 2 CARGUEIRO             DOMÉSTICA                       1787
#  7              2024                 2 CARGUEIRO             INTERNACIONAL                    195
#  8              2024                 2 NÃO IDENTIFICADO      INTERNACIONAL                   8867
#  9              2024                 2 PASSAGEIRO            DOMÉSTICA                      59537
# 10              2024                 2 PASSAGEIRO            INTERNACIONAL                   3201
# # ℹ 50 more rows
# # ℹ Use `print(n = ...)` to see more rows
…
# ExecPlan with 4 nodes:
# 3:SinkNode{}
#   2:GroupByNode{keys=["nr_ano_referencia", "nr_mes_referencia", "ds_servico_tipo_linha", "ds_natureza_etapa"], aggregates=[
#       hash_count_all(*),
#   ]}
#     1:ProjectNode{projection=[nr_ano_referencia, nr_mes_referencia, ds_servico_tipo_linha, ds_natureza_etapa]}
#       0:SourceNode{}

Para coletar os dados na memória, utilizamos a função collect() (assim como fizemos com o dbplyr):

df_pq_quantidade_voos <- collect(query_pq_quantidade_voos)

df_pq_quantidade_voos

# # A tibble: 60 × 5
#    nr_ano_referencia nr_mes_referencia ds_servico_tipo_linha ds_natureza_etapa quantidade_de_voos
#                <int>             <int> <chr>                 <chr>                          <int>
#  1              2024                11 NÃO IDENTIFICADO      INTERNACIONAL                   8970
#  2              2024                11 PASSAGEIRO            INTERNACIONAL                   3553
#  3              2024                11 PASSAGEIRO            DOMÉSTICA                      62394
#  4              2024                11 CARGUEIRO             DOMÉSTICA                       1361
#  5              2024                12 PASSAGEIRO            DOMÉSTICA                      66629
#  6              2024                12 NÃO IDENTIFICADO      INTERNACIONAL                   9662
#  7              2024                12 CARGUEIRO             DOMÉSTICA                       1458
#  8              2024                12 PASSAGEIRO            INTERNACIONAL                   4145
#  9              2024                12 CARGUEIRO             INTERNACIONAL                    150
# 10              2024                 5 PASSAGEIRO            DOMÉSTICA                      61674
# # ℹ 50 more rows
# # ℹ Use `print(n = ...)` to see more rows
…
