8 Programação funcional – R intermediário e pesquisa reprodutível
…
Escopo Global: Variáveis definidas fora de funções estão no ambiente global (global environment) e podem ser acessadas de qualquer lugar do código. No entanto, confiar em variáveis globais dentro de funções pode gerar dependências implícitas, dificultando a compreensão e a depuração do código.

Quando uma função precisa de um objeto que não está definido em seu escopo local (ou seja, não foi criada dentro da função ou recebida como um argumento), o R inicia uma busca nos ambientes acima, até encontrar o objeto ou gerar um erro caso ele não exista. Esse comportamento pode causar efeitos inesperados, especialmente se o objeto global for alterado em outro lugar do código.

Por exemplo, considere a seguinte função:

contagem_coluna <- function(coluna){
  voos |> 
    dplyr::count(.data[[coluna]], sort = TRUE)
}
# Experimentando a função: UF de origem
contagem_coluna("sg_uf_origem")

# A tibble: 28 × 2
   sg_uf_origem     n
   <chr>        <int>
 1 SP           26358
 2 RJ            7434
 3 <NA>          7228
 4 MG            5969
 5 DF            4531
 6 PE            3976
 7 BA            3787
 8 PR            3586
 9 SC            2785
10 RS            2028
# ℹ 18 more rows

# Experimentando a função: município de origem
contagem_coluna("nm_municipio_origem")

# A tibble: 299 × 2
   nm_municipio_origem      n
   <chr>                <int>
 1 GUARULHOS            11809
 2 SÃO PAULO             8104
 3 RIO DE JANEIRO        7345
 4 CAMPINAS              5210
 5 CONFINS               4788
 6 BRASÍLIA              4524
 7 RECIFE                3506
 8 SALVADOR              2449
 9 SÃO JOSÉ DOS PINHAIS  2069
10 PORTO ALEGRE          1716
# ℹ 289 more rows
O que acontece se tentarmos executar a função contagem_coluna()? Observe que estamos usando a base de dados voos dentro da função, mas ela não foi passada como argumento.

E ao executar a função, ela não gerou erro!! Isso acontece porque o R procura primeiro no ambiente local, depois no ambiente global, e encontra a base de dados voos no ambiente global. E como a base de dados voos foi carregada no ambiente global, a função consegue acessá-la. Se o objeto voos não existisse, a função geraria um erro.

O ideal seria deixar a base de dados voos como argumento da função, para que ela seja mais flexível e independente do ambiente global.

contagem_coluna_2 <- function(df, coluna){
  df |> 
    dplyr::count(.data[[coluna]], sort = TRUE)
}

# Experimentando a função: UF de origem
contagem_coluna_2(voos, "sg_uf_origem")

# A tibble: 28 × 2
   sg_uf_origem     n
   <chr>        <int>
 1 SP           26358
 2 RJ            7434
 3 <NA>          7228
 4 MG            5969
 5 DF            4531
 6 PE            3976
 7 BA            3787
 8 PR            3586
 9 SC            2785
10 RS            2028
# ℹ 18 more rows

# Experimentando a função: município de origem
contagem_coluna_2(voos, "nm_municipio_origem")

# A tibble: 299 × 2
   nm_municipio_origem      n
   <chr>                <int>
 1 GUARULHOS            11809
 2 SÃO PAULO             8104
 3 RIO DE JANEIRO        7345
 4 CAMPINAS              5210
 5 CONFINS               4788
 6 BRASÍLIA              4524
 7 RECIFE                3506
 8 SALVADOR              2449
 9 SÃO JOSÉ DOS PINHAIS  2069
10 PORTO ALEGRE          1716
# ℹ 289 more rows
…
