5 Produção de relatórios com Quarto – R intermediário e pesquisa reprodutível
…
A base de dados que você está utilizando pode ser atualizada futuramente? Se sim, busque adicionar conteúdos com códigos em linha.

Caso algum conteúdo que você quer adicionar com código de linha dependa de um código “grande” (mais de uma linha), é interessante criar um campo de código, salvar o resultado em um objeto, e utilizar o código em linha para chamar o objeto.

5.4.8.3.1 Exercícios

Ainda no arquivo "aula-2.qmd": utilizando a base de dados pnud_min do pacote abjData, escreva uma breve descrição da base de dados, utilizando códigos em linha. Ideias de conteúdos: número de observações, número de variáveis, variáveis presentes na base, quais são os anos presentes na base, quais são os municípios com o menor e maior indicador de IDH municipal para o ano mais recente, entre outros.

Caso não conheça o pacote abjData, você pode carregar a base de dados com o código abaixo:

# install.packages("abjData") # executar caso não tenha o abjData instalado
library(abjData)
pnud_min

# A tibble: 16,686 × 15
   ano   muni_id muni_nm   uf_sigla regiao_nm  idhm idhm_e idhm_l idhm_r espvida
   <chr> <chr>   <chr>     <chr>    <chr>     <dbl>  <dbl>  <dbl>  <dbl>   <dbl>
 1 1991  1100015 ALTA FLO… RO       Norte     0.329  0.112  0.617  0.516    62.0
 2 1991  1100023 ARIQUEMES RO       Norte     0.432  0.199  0.684  0.593    66.0
 3 1991  1100031 CABIXI    RO       Norte     0.309  0.108  0.636  0.43     63.2
 4 1991  1100049 CACOAL    RO       Norte     0.407  0.171  0.667  0.593    65.0
 5 1991  1100056 CEREJEIR… RO       Norte     0.386  0.167  0.629  0.547    62.7
 6 1991  1100064 COLORADO… RO       Norte     0.376  0.151  0.658  0.536    64.5
 7 1991  1100072 CORUMBIA… RO       Norte     0.203  0.039  0.572  0.373    59.3
 8 1991  1100080 COSTA MA… RO       Norte     0.425  0.22   0.629  0.553    62.8
 9 1991  1100098 ESPIGÃO … RO       Norte     0.388  0.159  0.653  0.561    64.2
10 1991  1100106 GUAJARÁ-… RO       Norte     0.468  0.247  0.662  0.625    64.7
# ℹ 16,676 more rows
# ℹ 5 more variables: rdpc <dbl>, gini <dbl>, pop <int>, lat <dbl>, lon <dbl>
…
