6 Manipulação de datas e textos – R intermediário e pesquisa reprodutível
…
dt_sistema: está como <dttm>, ou seja, do tipo POSIXct. Vamos manter como está.

6.2.3.1 Transformando variáveis de texto em datas

Como vimos anteriormente, existem funções para transformar variáveis de texto em datas. Vamos transformar a coluna dt_partida_real para o tipo Date.

Se a gente tentar transformar a coluna dt_partida_real diretamente para Date, o R não irá reconhecer a data corretamente (e também não irá retornar um erro):

voos_datas |> 
  select(dt_partida_real) |> 
  mutate(
    dt_partida_real_date = as.Date(dt_partida_real)
  )

# A tibble: 82,003 × 2
   dt_partida_real dt_partida_real_date
   <chr>           <date>              
 1 01/12/2024      1-12-20             
 2 01/12/2024      1-12-20             
 3 01/12/2024      1-12-20             
 4 30/11/2024      30-11-20            
 5 01/12/2024      1-12-20             
 6 01/12/2024      1-12-20             
 7 01/12/2024      1-12-20             
 8 01/12/2024      1-12-20             
 9 01/12/2024      1-12-20             
10 01/12/2024      1-12-20             
# ℹ 81,993 more rows

Então é importante lembrar que o R espera que a data esteja no formato ano-mês-dia para transformar em Date. Para isso, vamos utilizar a função as.Date() e especificar o formato da data, usando o argumento format:

voos_datas |> 
  select(dt_partida_real) |> 
  mutate(
    dt_partida_real_date = as.Date(dt_partida_real, format = "%d/%m/%Y")
  )

# A tibble: 82,003 × 2
   dt_partida_real dt_partida_real_date
   <chr>           <date>              
 1 01/12/2024      2024-12-01          
 2 01/12/2024      2024-12-01          
 3 01/12/2024      2024-12-01          
 4 30/11/2024      2024-11-30          
 5 01/12/2024      2024-12-01          
 6 01/12/2024      2024-12-01          
 7 01/12/2024      2024-12-01          
 8 01/12/2024      2024-12-01          
 9 01/12/2024      2024-12-01          
10 01/12/2024      2024-12-01          
# ℹ 81,993 more rows
No argumento format, precisamos apresentar como a data está formatada. Ou seja: em "%d/%m/%Y", %d representa o dia, %m representa o mês e %Y representa o ano.

Existe uma função do pacote lubridate que facilita a conversão de datas: a função dmy() (que significa “dia-mês-ano”) e similares, mas vamos apresentá-las mais adiante.

Extra: função readr::parse_date()

A função readr::parse_date() tem o mesmo propósito, porém ela apresenta alguns argumentos extras (como o locale). A documentação dessa função é muito útil para entender como formatar datas.

voos_datas |> 
  select(dt_partida_real) |> 
  mutate(
    dt_partida_real_date = parse_date(dt_partida_real, format = "%d/%m/%Y")
  )

# A tibble: 82,003 × 2
   dt_partida_real dt_partida_real_date
   <chr>           <date>              
 1 01/12/2024      2024-12-01          
 2 01/12/2024      2024-12-01          
 3 01/12/2024      2024-12-01          
 4 30/11/2024      2024-11-30          
 5 01/12/2024      2024-12-01          
 6 01/12/2024      2024-12-01          
 7 01/12/2024      2024-12-01          
 8 01/12/2024      2024-12-01          
 9 01/12/2024      2024-12-01          
10 01/12/2024      2024-12-01          
# ℹ 81,993 more rows
…
[1] "2025-02-03"

6.2.3.2 Transformando datas do Excel para Date

A coluna dt_chegada_real foi importada como número (Double).

Será que conseguimos transformar essa coluna para Date apenas usando a função as.Date()?

voos_datas |> 
  select(dt_chegada_real) |> 
  mutate(
    dt_chegada_real_date = as.Date(dt_chegada_real)
  )

# A tibble: 82,003 × 2
   dt_chegada_real dt_chegada_real_date
             <dbl> <date>              
 1           45627 2094-12-03          
 2           45627 2094-12-03          
 3           45627 2094-12-03          
 4           45627 2094-12-03          
 5           45628 2094-12-04          
 6           45627 2094-12-03          
 7           45628 2094-12-04          
 8           45627 2094-12-03          
 9           45628 2094-12-04          
10           45627 2094-12-03          
# ℹ 81,993 more rows

As datas convertidas estão no futuro (o que não faz sentido, já que os voos ocorreram em dezembro de 2024). O que aconteceu?

Essa coluna está salva em um padrão comum de dados do Excel: o número de dias desde 01/01/1900. Para transformar essa coluna em Date, precisamos informar ao R que a data de referência é 30/12/1899 (um dia antes de 01/01/1900), utilizando o argumento origin:

voos_datas |> 
  select(dt_chegada_real) |> 
  mutate(
    dt_chegada_real_date = as.Date(dt_chegada_real, origin = "1899-12-30")
  )

# A tibble: 82,003 × 2
   dt_chegada_real dt_chegada_real_date
             <dbl> <date>              
 1           45627 2024-12-01          
 2           45627 2024-12-01          
 3           45627 2024-12-01          
 4           45627 2024-12-01          
 5           45628 2024-12-02          
 6           45627 2024-12-01          
 7           45628 2024-12-02          
 8           45627 2024-12-01          
 9           45628 2024-12-02          
10           45627 2024-12-01          
# ℹ 81,993 more rows

Não é muito prático ter que lembrar a data de referência para transformar datas do Excel em Date. Por isso, o janitor possui a função excel_numeric_to_date() que faz essa conversão automaticamente:

voos_datas |> 
  select(dt_chegada_real) |> 
  mutate(
    dt_chegada_real_date = janitor::excel_numeric_to_date(dt_chegada_real)
  )

# A tibble: 82,003 × 2
   dt_chegada_real dt_chegada_real_date
             <dbl> <date>              
 1           45627 2024-12-01          
 2           45627 2024-12-01          
 3           45627 2024-12-01          
 4           45627 2024-12-01          
 5           45628 2024-12-02          
 6           45627 2024-12-01          
 7           45628 2024-12-02          
 8           45627 2024-12-01          
 9           45628 2024-12-02          
10           45627 2024-12-01          
# ℹ 81,993 more rows
…
O pacote lubridate faz parte do pacote {tidyverse} do R, e tem funções que facilitam a manipulação de datas. Ele possui funções específicas para extrair informações de datas, como dia, mês, ano, semana, entre outras.

library(lubridate)

6.2.4.1 Funções de parse

Como citado anteriormente, quando queremos transformar uma data no formato dia/mês/ano para Date, podemos utilizar a função dmy() (que significa “dia-mês-ano”):

voos_datas |> 
  select(dt_partida_real) |> 
  mutate(
    dt_partida_real_date = dmy(dt_partida_real)
  )

# A tibble: 82,003 × 2
   dt_partida_real dt_partida_real_date
   <chr>           <date>              
 1 01/12/2024      2024-12-01          
 2 01/12/2024      2024-12-01          
 3 01/12/2024      2024-12-01          
 4 30/11/2024      2024-11-30          
 5 01/12/2024      2024-12-01          
 6 01/12/2024      2024-12-01          
 7 01/12/2024      2024-12-01          
 8 01/12/2024      2024-12-01          
 9 01/12/2024      2024-12-01          
10 01/12/2024      2024-12-01          
# ℹ 81,993 more rows
O lubridate também possui funções para transformar datas que estejam em outros formatos. O importante é lembrar que y representa o ano, m representa o mês e d representa o dia, e assim podemos combinar essas letras para formar o nome da função que precisamos usar para transformar a data. Se quiser saber mais sobre esse grupo de funções, acesse a documentação oficial.

6.2.4.2 Extrair informações de datas

O lubridate possui funções para extrair informações de datas. No exemplo abaixo, vamos extrair o dia, mês e ano da coluna dt_referencia:

voos_datas |> 
  select(dt_referencia) |> 
  mutate(
    dia = day(dt_referencia),
    mes = month(dt_referencia),
    ano = year(dt_referencia)
  )

# A tibble: 82,003 × 4
   dt_referencia   dia   mes   ano
   <date>        <int> <dbl> <dbl>
 1 2024-12-01        1    12  2024
 2 2024-12-01        1    12  2024
 3 2024-12-01        1    12  2024
 4 2024-12-01        1    12  2024
 5 2024-12-01        1    12  2024
 6 2024-12-01        1    12  2024
 7 2024-12-01        1    12  2024
 8 2024-12-01        1    12  2024
 9 2024-12-01        1    12  2024
10 2024-12-01        1    12  2024
# ℹ 81,993 more rows
…
    mes_pt = month(
      dt_referencia,
      label = TRUE,
      abbr = FALSE,
      locale = "pt_BR"
    )
  )

Warning: There was 1 warning in `mutate()`.
ℹ In argument: `mes_pt = month(dt_referencia, label = TRUE, abbr = FALSE,
  locale = "pt_BR")`.
Caused by warning in `Sys.setlocale()`:
! SO informa que a requisição para definir o locale como 'pt_BR' não pode ser honrada

# A tibble: 82,003 × 4
   dt_referencia mes_curto mes      mes_pt  
   <date>        <ord>     <ord>    <ord>   
 1 2024-12-01    dez       dezembro dezembro
 2 2024-12-01    dez       dezembro dezembro
 3 2024-12-01    dez       dezembro dezembro
 4 2024-12-01    dez       dezembro dezembro
 5 2024-12-01    dez       dezembro dezembro
 6 2024-12-01    dez       dezembro dezembro
 7 2024-12-01    dez       dezembro dezembro
 8 2024-12-01    dez       dezembro dezembro
 9 2024-12-01    dez       dezembro dezembro
10 2024-12-01    dez       dezembro dezembro
# ℹ 81,993 more rows
…
    dia_semana = wday(dt_referencia, label = TRUE),
    
    dia_semana_abbr = wday(dt_referencia, label = TRUE, abbr = FALSE),
    
    dia_semana_pt = wday(
      dt_referencia,
      label = TRUE,
      abbr = FALSE,
      locale = "pt_BR"
    )
  )

# A tibble: 82,003 × 5
   dt_referencia dia_semana_numero dia_semana dia_semana_abbr dia_semana_pt
   <date>                    <dbl> <ord>      <ord>           <ord>        
 1 2024-12-01                    1 dom        domingo         domingo      
 2 2024-12-01                    1 dom        domingo         domingo      
 3 2024-12-01                    1 dom        domingo         domingo      
 4 2024-12-01                    1 dom        domingo         domingo      
 5 2024-12-01                    1 dom        domingo         domingo      
 6 2024-12-01                    1 dom        domingo         domingo      
 7 2024-12-01                    1 dom        domingo         domingo      
 8 2024-12-01                    1 dom        domingo         domingo      
 9 2024-12-01                    1 dom        domingo         domingo      
10 2024-12-01                    1 dom        domingo         domingo      
# ℹ 81,993 more rows

6.2.4.3 Arredondando datas

O lubridate também possui funções para arredondar datas. Por exemplo, a função floor_date() arredonda a data para o início de um intervalo de tempo (por exemplo, o início do mês):

voos_datas |> 
  select(dt_referencia) |> 
  mutate(
    mes_arredondado = floor_date(dt_referencia, unit = "month"),
  )

# A tibble: 82,003 × 2
   dt_referencia mes_arredondado
   <date>        <date>         
 1 2024-12-01    2024-12-01     
 2 2024-12-01    2024-12-01     
 3 2024-12-01    2024-12-01     
 4 2024-12-01    2024-12-01     
 5 2024-12-01    2024-12-01     
 6 2024-12-01    2024-12-01     
 7 2024-12-01    2024-12-01     
 8 2024-12-01    2024-12-01     
 9 2024-12-01    2024-12-01     
10 2024-12-01    2024-12-01     
# ℹ 81,993 more rows

6.2.4.4 Exercícios

Utilizando a base de dados voos, tente gerar a tabela abaixo utilizando a coluna dt_partida_real:

# A tibble: 82,003 × 5
   dt_partida_real dia_partida mes_partida mes_partida_date dia_semana_partida
   <date>                <int> <ord>       <date>           <ord>             
 1 2024-12-01                1 dez         2024-12-01       dom               
 2 2024-12-01                1 dez         2024-12-01       dom               
 3 2024-12-01                1 dez         2024-12-01       dom               
 4 2024-11-30               30 nov         2024-11-01       sáb               
 5 2024-12-01                1 dez         2024-12-01       dom               
 6 2024-12-01                1 dez         2024-12-01       dom               
 7 2024-12-01                1 dez         2024-12-01       dom               
 8 2024-12-01                1 dez         2024-12-01       dom               
 9 2024-12-01                1 dez         2024-12-01       dom               
10 2024-12-01                1 dez         2024-12-01       dom               
# ℹ 81,993 more rows
…
Para que o ggplot2 entenda que a variável é uma data, precisamos transformá-la para o tipo Date (como visto anteriormente):

quantidade_voos_partida_data <- voos_brasilia |>
  mutate(
    dt_partida_real_date = dmy(dt_partida_real)
  ) |>
  count(dt_partida_real_date)

quantidade_voos_partida_data

# A tibble: 31 × 2
   dt_partida_real_date     n
   <date>               <int>
 1 2024-12-01             142
 2 2024-12-02             158
 3 2024-12-03             163
 4 2024-12-04             160
 5 2024-12-05             164
 6 2024-12-06             157
 7 2024-12-07             126
 8 2024-12-08             146
 9 2024-12-09             160
10 2024-12-10             159
# ℹ 21 more rows
…
Nos exemplos anteriores, utilizamos funções básicas do stringr para detectar e extrair padrões em strings.

Podemos também utilizar essas funções juntamente com o dplyr para realizar transformações em bases de dados.

6.3.3.1 Filtros com str_detect()

No curso introdutório, aprendemos a utilizar a função filter() do dplyr para filtrar linhas de uma base de dados. Porém o filter() busca por valores exatos, e não por padrões em strings.

Se pesquisarmos por voos que saíram de Congonhas, podemos usar o filter() para encontrar exatamente “CONGONHAS”:

voos |> 
  filter(nm_aerodromo_origem == "CONGONHAS")

# A tibble: 8,112 × 26
   id_basica id_empresa nm_empresa               dt_referencia ds_di ds_grupo_di
       <dbl>      <dbl> <chr>                    <date>        <chr> <chr>      
 1  33973670    1000854 GOL LINHAS AÉREAS S.A. … 2024-12-01    REGU… REGULAR    
 2  33973818    1000854 GOL LINHAS AÉREAS S.A. … 2024-12-01    REGU… REGULAR    
 3  33974325    1000854 GOL LINHAS AÉREAS S.A. … 2024-12-01    REGU… REGULAR    
 4  33974449    1000854 GOL LINHAS AÉREAS S.A. … 2024-12-01    REGU… REGULAR    
 5  33974542    1000854 GOL LINHAS AÉREAS S.A. … 2024-12-01    REGU… REGULAR    
 6  33974581    1000854 GOL LINHAS AÉREAS S.A. … 2024-12-01    REGU… REGULAR    
 7  33974592    1000854 GOL LINHAS AÉREAS S.A. … 2024-12-01    REGU… REGULAR    
 8  33974692    1000854 GOL LINHAS AÉREAS S.A. … 2024-12-01    REGU… REGULAR    
 9  33975020    1000854 GOL LINHAS AÉREAS S.A. … 2024-12-01    REGU… REGULAR    
10  33975462    1000854 GOL LINHAS AÉREAS S.A. … 2024-12-01    REGU… REGULAR    
# ℹ 8,102 more rows
# ℹ 20 more variables: ds_natureza_etapa <chr>, hr_partida_real <time>,
#   dt_partida_real <chr>, id_aerodromo_origem <dbl>,
#   nm_aerodromo_origem <chr>, nm_municipio_origem <chr>, sg_uf_origem <chr>,
#   nm_regiao_origem <chr>, nm_pais_origem <chr>, nm_continente_origem <chr>,
#   hr_chegada_real <time>, dt_chegada_real <dbl>, id_aerodromo_destino <dbl>,
#   nm_aerodromo_destino <chr>, nm_municipio_destino <chr>, …
…
# A tibble: 0 × 26
# ℹ 26 variables: id_basica <dbl>, id_empresa <dbl>, nm_empresa <chr>,
#   dt_referencia <date>, ds_di <chr>, ds_grupo_di <chr>,
#   ds_natureza_etapa <chr>, hr_partida_real <time>, dt_partida_real <chr>,
#   id_aerodromo_origem <dbl>, nm_aerodromo_origem <chr>,
#   nm_municipio_origem <chr>, sg_uf_origem <chr>, nm_regiao_origem <chr>,
#   nm_pais_origem <chr>, nm_continente_origem <chr>, hr_chegada_real <time>,
#   dt_chegada_real <dbl>, id_aerodromo_destino <dbl>, …

A função str_detect() retorna um vetor lógico (TRUE ou FALSE) indicando se um padrão está presente em uma string. Isso é muito útil para usar com a função filter() (do dplyr), para filtrar strings que contêm um padrão específico. Neste caso, podemos usar a função str_detect() para filtrar strings que contêm um padrão específico:

voos |> 
  filter(str_detect(nm_aerodromo_origem, "GUARULHOS"))

# A tibble: 11,726 × 26
   id_basica id_empresa nm_empresa               dt_referencia ds_di ds_grupo_di
       <dbl>      <dbl> <chr>                    <date>        <chr> <chr>      
 1  33972533    1001070 AEROVÍAS DE MÉXICO S.A … 2024-12-01    REGU… REGULAR    
 2  33819746    1007570 ARAJET S.A.              2024-12-01    REGU… REGULAR    
 3  33914269    1000896 DELTA AIR LINES INC.     2024-12-01    REGU… REGULAR    
 4  33914319    1000896 DELTA AIR LINES INC.     2024-12-01    REGU… REGULAR    
 5  33914324    1000896 DELTA AIR LINES INC.     2024-12-01    REGU… REGULAR    
 6  33820286    1007303 FB LÍNEAS AÉREAS S.A (F… 2024-12-01    REGU… REGULAR    
 7  33820290    1007303 FB LÍNEAS AÉREAS S.A (F… 2024-12-01    REGU… REGULAR    
 8  33972705    1001220 BOA BOLIVIANA DE AVIACI… 2024-12-01    REGU… REGULAR    
 9  33972718    1001220 BOA BOLIVIANA DE AVIACI… 2024-12-01    REGU… REGULAR    
10  33972965    1000854 GOL LINHAS AÉREAS S.A. … 2024-12-01    REGU… REGULAR    
# ℹ 11,716 more rows
# ℹ 20 more variables: ds_natureza_etapa <chr>, hr_partida_real <time>,
#   dt_partida_real <chr>, id_aerodromo_origem <dbl>,
#   nm_aerodromo_origem <chr>, nm_municipio_origem <chr>, sg_uf_origem <chr>,
#   nm_regiao_origem <chr>, nm_pais_origem <chr>, nm_continente_origem <chr>,
#   hr_chegada_real <time>, dt_chegada_real <dbl>, id_aerodromo_destino <dbl>,
#   nm_aerodromo_destino <chr>, nm_municipio_destino <chr>, …

Imagine que queremos descobrir quais são os destinos possíveis a partir dos aeroportos de Guarulhos e Congonhas (localizados na Região Metropolitana de São Paulo). Podemos utilizar a função str_detect() + filter() para filtrar estas origens. Observe que utilizamos o operador | para indicar que queremos encontrar voos que saíram de Guarulhos ou Congonhas:

voos |> 
  filter(str_detect(nm_aerodromo_origem, "GUARULHOS|CONGONHAS")) |> 
  count(nm_aerodromo_origem, nm_municipio_destino, nm_pais_destino, sort = TRUE)

# A tibble: 235 × 4
   nm_aerodromo_origem                nm_municipio_destino nm_pais_destino     n
   <chr>                              <chr>                <chr>           <int>
 1 CONGONHAS                          RIO DE JANEIRO       BRASIL           1757
 2 CONGONHAS                          BRASÍLIA             BRASIL            700
 3 CONGONHAS                          CONFINS              BRASIL            654
 4 CONGONHAS                          PORTO ALEGRE         BRASIL            583
 5 GUARULHOS - GOVERNADOR ANDRÉ FRAN… RECIFE               BRASIL            563
 6 CONGONHAS                          SÃO JOSÉ DOS PINHAIS BRASIL            557
 7 GUARULHOS - GOVERNADOR ANDRÉ FRAN… RIO DE JANEIRO       BRASIL            534
 8 CONGONHAS                          FLORIANÓPOLIS        BRASIL            481
 9 CONGONHAS                          SALVADOR             BRASIL            476
10 GUARULHOS - GOVERNADOR ANDRÉ FRAN… CONFINS              BRASIL            425
# ℹ 225 more rows
…
